{
  "on": "235aeed00258fdda0226fdda0258fdda0226fdda0258fdda0226fdda0258fdda0226fdda0258f98e0258f98e0258f98e0258f9c00258fdda0258f98e0258f98e0226f98e0258f98e0258f98e0258fe0c0258fdda0226fdda0258fe0c0258fdda0258fe0c0258fdda0226fdda0258f98e0258f98e0226f98e0258f98e0258f98e0258f98e0226",
  "off": "22f6ee9e0258fe0c0258fdda0226fdda0258fe0c0258fdda0226fdda0258fe0c0258fdda0226f95c0226f98e0258f98e0258f98e0226fdda0258f98e0226f98e0258f98e0258fe0c0258f98e0258fe0c0258fdda0226fdda0258fe0c0258fdda0226fdda0258f98e0226fdda0258f98e0258f98e0226f98e0258f98e0226f95c0226f98e0258",
  "brighter": "2328eed00258fdda0226fdda0258fe0c0258fdda0226fdda0258fe0c0258fdda0226fda80226f98e0258f98e0226f98e0258f98e0258fe0c0258f98e0258f98e0258f98e0226fdda0258fe0c0258fdda0226fdda0258fdda0226fdda0258fe0c0258fdda0226f98e0258f98e0258f98e0258f98e0226f98e0258f98e0258f98e0226f98e0258",
  "dimmer": "235aee9e0226fdda0258fdda0226fda80226fdda0258fdda0226fdda0258fdda0226fdda0258f98e0258f98e0258f98e0226f98e0258fdda0258f98e0226f95c0226f98e0258f98e0258fdda0258fe0c0258fdda0258fe0c0258fdda0258fe0c0258fdda0226fdda0258f98e0258f98e0226f95c0226f98e0258f98e0258f98e0258f98e0226",
  "white": "235aeed00258fdda0226fdda0258fdda0226fdda0258fdda0226fdda0258fdda0226fdda0258f98e0258f98e0226f95c0226f98e0258fdda0258f98e0258f98e0226f98e0258f98e0258f98e0258f98e0258fe0c0258fdda0258fe0c0258fdda0258fe0c0258fdda0258fdda0226fdda0258f98e0258f98e0258f98e0226f98e0258f98e0258",
  "red": "2328ee9e0258fdda0226fdda0258fdda0226fdda0258fe0c0258fdda0258fdda0226fdda0226f95c0226f98e0258f98e0258f98e0258fdda0226f98e0258f98e0258f98e0258fdda0226fdda0258f98e0258fdda0226fdda0258fdda0226fdda0258fe0c0258f98e0258f98e0258fdda0226f98e0258f98e0258f98e0258f98e0258f98e0226",
  "pumpkin": "2328eed00258fdda0226fdda0226fdda0258fe0c0258fdda0258fdda0226fdda0226fdda0258f98e0226f98e0258f98e0258f98e0226fdda0258f98e0226f98e0258f98e0258fe0c0258fdda0258fe0c0258f98e0258fe0c0258fdda0226fda80226fe0c0258f98e0258f98e0226f98e0258fdda0258f9c00258f98e0258f98e0258f9c00258",
  "harvest": "22f6eed00258fdda0226fda80226fdda0226fdda0226fdda0258fe0c0258fdda0226fdda0258f98e0226f98e0258f98e0258f98e0226fda80226f98e0226f98e0258f98e0258fe0c0258fdda0226f98e0258f98e0258fe0c0258fdda0226fdda0258fe0c0258f98e0258f98e0226fdda0258fe0c0258f98e0226f98e0258f98e0258f98e0226",
  "yellow": "22f6eed00258fdda0226fda80226fdda0226fdda0258fdda0226fdda0226fdda0226fdda0258f98e0258f98e0226f98e0258f98e0226fdda0258f98e0226f98e0258f98e0258fe0c0258fdda0226fdda0258fe0c0258f98e0258fe0c0258fdda0226fdda0258f98e0226f95c0226f98e0258f98e0226fdda0258f98e0226f98e0258f98e0258",
  "lemon": "22c4ee9e0226fda80226fdda0226fdda0226fdda0258fe0c0258fdda0226fdda0258fdda0226f98e0258f98e0226f98e0258f98e0258fdda0226f98e0258f98e0226f98e0258fdda0226fdda0258f98e0226fdda0226f98e0258fdda0258fe0c0258fe0c0258f98e0258f98e0226fda80226f98e0226fda80226f98e0226f98e0258f98e0258",
  "green": "22f6ee9e0258fe0c0258fdda0226fdda0258fdda0226fdda0258fe0c0258fdda0226fdda0258f98e0258f98e0226f98e0258f98e0258fe0c0258f98e0258f98e0258f98e0226f98e0258fdda0258f9c00258fdda0258fe0c0258fdda0226fdda0258fe0c0258fdda0226f98e0258fdda0258f98e0226f98e0258f98e0258f98e0226f98e0258",
  "teal": "2328eed00258fe0c0258fdda0226fda80226fdda0226fdda0226fdda0258fdda0226fdda0258f98e0226f98e0258f98e0258f98e0226fdda0258f98e0226f98e0258f98e0258f98e0226fdda0258fe0c0258f98e0258fe0c0258fdda0226fdda0258fdda0226fdda0258f9c00258f98e0258fe0c0258f98e0258f98e0226f95c0226f98e0258",
  "blue": "22f6eed00258fe0c0258fdda0226fdda0258fe0c0258fdda0226fda80226fe0c0258fdda0226f98e0258f98e0258f98e0226f98e0258fdda0226f98e0258f98e0258f98e0226f98e0258fdda0258f9c00258f98e0258fe0c0258fdda0226fdda0258fe0c0258fdda0258f9c00258fdda0258fe0c0258f98e0226f98e0258f98e0258f98e0226",
  "lightblue": "22c4ee9e0226fdda0258fdda0226fdda0226fda80226fe0c0258fdda0258fe0c0258fdda0226f98e0258f98e0258f98e0226f98e0258fdda0226f98e0258f98e0226f98e0258f98e0258fdda0226fdda0226fda80226f98e0258fe0c0258fdda0226fdda0226fda80226f98e0258f98e0226f98e0258fdda0226f98e028af9c00258f98e0226",
  "winter": "22c4ee9e0258fdda0226fdda0226fdda0258fdda0226fdda0226fdda0258fdda0226fdda0258f9c00258f98e0258f98e0258f9c00258fdda0226f98e0258f98e0258f98e0226f98e0258fdda0258f9c00258fdda0226f98e0258fdda0258fe0c0258fdda0226fdda0226f98e0258fdda0258f9c00258fdda0226f98e0258f98e0258f98e0226",
  "darkblue": "22f6ee9e0258fe0c0258fdda0226fdda0258fe0c0258fdda0258fdda0226fdda0226fdda0258f98e0226f95c0226f98e0258f98e0226fdda0258f98e0258f98e0226f98e0258fdda0226f95c0226f98e0258fdda0226fdda0258fe0c0258fdda0226fdda0258f98e0258fe0c0258fdda0226f98e0258f98e0258f98e0226f98e0258f98e0258",
  "purple": "22f6eed00258fe0c0258fdda0258fdda0226fdda0226fdda0258fdda0226fdda0226fdda0258f98e0226f98e0258f98e0258f98e0226fdda0258f98e0226f95c0226f98e0258fe0c0258f98e0258fe0c0258f98e0258fe0c0258fdda0226fdda0258fe0c0258f98e0258fe0c0258f98e0258fe0c0258f98e0258f98e0226f98e0258f98e0258",
  "magenta": "22f6eed00258fdda0226fda80226fe0c0258fdda0258fe0c0258fe0c0258fdda0226fdda0258f98e0258f9c00258f98e0258f98e0258fdda0226f98e0226f98e0258f98e0258fe0c0258f98e0258f98e0226f98e0258fdda0226fdda0258fe0c0258fdda0226f98e0258fdda0226fdda0258fe0c0258f98e0258f98e0226f98e0258f98e0258",
  "pink": "22f6ee9e0226fdda0258fe0c0258fdda0226fdda0258fe0c0258fdda0226fdda0258fe0c0258f98e0258f98e0226f98e0258f98e0226fdda0258f98e0258f9c00258f98e0258fe0c0258f95c0226fe0c0258fdda0226f98e0258fdda0258fe0c0258fe0c0258f98e0258fe0c0258f98e0258f98e0226fdda0258f98e0226f98e0258f98e0258",
  "bubblegum": "22f6eed00258fdda0226fdda0258fdda0226fdda0226fdda0258fdda0226fdda0226fdda0258f98e0226f98e0258f98e0258f98e0226fdda0258f98e0226f98e0258f98e0258fe0c0258f98e0258f98e0226fdda0258f98e0226fdda0258fe0c0258fdda0226f98e0258fdda0226fdda0258f98e0226fdda0258f9c00258f98e0258f98e0258",
  "colorcycle": "22f6eed00258fdda0226fdda0258fe0c0258fdda0226fda80226fdda0226fdda0258fe0c0258f98e0258f98e0226f98e0258f98e0258fdda0226f95c0226f98e0226f98e0258f98e0258f98e0226fdda0258f98e0258fe0c0258fdda0226fdda0258fe0c0258fdda0226fda80226f98e0226fdda0258f98e0258f9c00258f98e0258f98e0258",
  "rgbfade": "22f6eed00258fdda0226fdda0258fe0c0258fdda0226fdda0258fe0c0258fdda0226fda80226f98e0226f98e0258f98e0258f98e0226fdda0258f98e0226f98e0258f98e0258f98e0226f98e0258f98e0258f98e0226fdda0258fe0c0258fdda0258fe0c0258fe0c0258fdda0226fdda0258fdda0226f98e0258f98e0226f95c0226f98e0258",
  "colorfade": "22f6ee9e0226fdda0258fdda0226fdda0226fdda0258fe0c0258fdda0226fdda0258fdda0226f98e0258f98e0226f98e0258f98e0258fdda0226f98e0258f98e0258f9c00258f98e0258f98e0258fe0c0258fdda0226f95c0226fdda0226fdda0258fe0c0258fdda0226fdda0258f98e0226f98e0258fdda0226f98e0258f98e0258f98e0226",
  "rgb": "22f6eed00258fdda0226fdda0258fdda0226fdda0258fe0c0258fdda0226fdda0258fe0c0258f98e0258f98e0226f95c0226f98e0258fe0c0258f98e0258f98e0226f98e0258f98e0258f98e0226f98e0258fdda0226f98e0258fdda0226fdda0258fe0c0258fdda0226fdda0258fe0c0258f98e0258fe0c0258f98e0258f98e0226f98e0258"
}